Exploring global patterns of dietary behaviors associated with health risk
…
That’s a lot of values!

Let’s look a bit deeper to try to understand why. We can use the count() function again but get the number of values for each category within sex, age_group_name and location_name of the data.

sep_age_diet_data %>%
  count(sex, age_group_name, location_name)

# A tibble: 5,880 x 4
   sex    age_group_name location_name           n
   <chr>  <chr>          <chr>               <int>
 1 Female 25 to 29       Afghanistan            15
 2 Female 25 to 29       Albania                15
 3 Female 25 to 29       Algeria                15
 4 Female 25 to 29       American Samoa         15
 5 Female 25 to 29       Andorra                15
 6 Female 25 to 29       Angola                 15
 7 Female 25 to 29       Antigua and Barbuda    15
 8 Female 25 to 29       Argentina              15
 9 Female 25 to 29       Armenia                15
10 Female 25 to 29       Australia              15
# ... with 5,870 more rows
…
We have two data sets. The first one is called PlantGrowth, which is an R built-in data set with an added ID variable. The second one is called workerInfo, which provides information about the lab workers who are responsible for each plant (hypothetical, for exercise purposes only). Following is what you need to do with these data sets.

Step 1: join the two data sets by retaining all rows from both sets and call the joined data fulldata

Step 2: change the variable name wID to workerID

Step 3: convert group and workerID values to factors

Step 4: only keep data from the ctrl group

Step 5: order the data from the lowest weight to highest

PlantGrowth

# A tibble: 30 x 3
      ID weight group
   <dbl>  <dbl> <chr>
 1     1   4.17 ctrl 
 2     2   5.58 ctrl 
 3     3   5.18 ctrl 
 4     4   6.11 ctrl 
 5     5   4.5  ctrl 
 6     6   4.61 ctrl 
 7     7   5.17 ctrl 
 8     8   4.53 ctrl 
 9     9   5.33 ctrl 
10    10   5.14 ctrl 
# ... with 20 more rows

workerInfo

# A tibble: 30 x 2
      ID   wID
   <dbl> <int>
 1     1     2
 2     2     3
 3     3     2
 4     4     4
 5     5     3
 6     6     1
 7     7     2
 8     8     2
 9     9     4
10    10     3
# ... with 20 more rows
…
